<svg width="24" height="12" viewBox="0 0 24 12" fill="none" xmlns="http://www.w3.org/2000/svg">
<g clip-path="url(#clip0)">
<path fill-rule="evenodd" clip-rule="evenodd" d="M23.2678 5.44298C23.4168 5.59692 23.4981 5.79066 23.4976 5.99059C23.513 6.18148 23.4532 6.37128 23.3277 6.52964L18.5002 11.6635C18.4167 11.7572 18.3115 11.835 18.1912 11.8923C18.0709 11.9495 17.9381 11.9848 17.8011 11.9961C17.6641 12.0073 17.5259 11.9942 17.3951 11.9576C17.2643 11.921 17.1437 11.8617 17.041 11.7833C16.9383 11.7127 16.8529 11.6254 16.7898 11.5265C16.7267 11.4275 16.687 11.3189 16.673 11.2068C16.6591 11.0946 16.6712 10.9813 16.7086 10.8732C16.746 10.7651 16.808 10.6644 16.8911 10.5768L20.2585 7H1C0.447716 7 0 6.55228 0 6C0 5.44772 0.447716 5 1 5H20.2417L16.7311 1.40433C16.5615 1.22959 16.4799 1.00432 16.5042 0.778063C16.5286 0.551808 16.657 0.343106 16.8611 0.19787C17.0652 0.0526339 17.3283 -0.0172397 17.5926 0.00362066C17.8569 0.024481 18.1007 0.134367 18.2703 0.309104L23.2678 5.44298Z" fill="#0D1D4A"/>
</g>
<defs>
<clipPath id="clip0">
<rect width="24" height="12" fill="white" transform="matrix(-1 0 0 1 24 0)"/>
</clipPath>
</defs>
</svg>
